; ModuleID = 'tgsi'
source_filename = "tgsi"
target datalayout = "e-p:64:64-p1:64:64-p2:32:32-p3:32:32-p4:64:64-p5:32:32-p6:32:32-i64:64-v16:16-v24:32-v32:32-v48:64-v96:128-v192:256-v256:256-v512:512-v1024:1024-v2048:2048-n32:64-S32-A5"
target triple = "amdgcn--"

define amdgpu_ps <{ i32, i32, i32, i32, i32, float, float, float, float, float, float, float, float, float, float, float, float, float, float, float }> @main([0 x <4 x i32>] addrspace(6)* inreg noalias dereferenceable(18446744073709551615), [0 x <8 x i32>] addrspace(6)* inreg noalias dereferenceable(18446744073709551615), [0 x float] addrspace(6)* inreg noalias dereferenceable(18446744073709551615), [0 x <8 x i32>] addrspace(6)* inreg noalias dereferenceable(18446744073709551615), float inreg, i32 inreg, <2 x i32>, <2 x i32>, <2 x i32>, <3 x i32>, <2 x i32>, <2 x i32>, <2 x i32>, float, float, float, float, float, i32, i32, float, i32) #0 {
main_body:
  %22 = ptrtoint [0 x float] addrspace(6)* %2 to i32
  %23 = insertelement <4 x i32> <i32 undef, i32 0, i32 752, i32 163756>, i32 %22, i32 0
  %24 = call nsz float @llvm.SI.load.const.v4i32(<4 x i32> %23, i32 736)
  %25 = call nsz float @llvm.SI.load.const.v4i32(<4 x i32> %23, i32 740)
  %26 = fmul nsz float %24, %15
  %27 = fadd nsz float %26, %25
  %28 = bitcast <2 x i32> %7 to <2 x float>
  %29 = extractelement <2 x float> %28, i32 0
  %30 = extractelement <2 x float> %28, i32 1
  %31 = call nsz float @llvm.amdgcn.interp.p1(float %29, i32 0, i32 5, i32 %5) #1
  %32 = call nsz float @llvm.amdgcn.interp.p2(float %31, float %30, i32 0, i32 5, i32 %5) #1
  %33 = call nsz float @llvm.amdgcn.interp.p1(float %29, i32 1, i32 5, i32 %5) #1
  %34 = call nsz float @llvm.amdgcn.interp.p2(float %33, float %30, i32 1, i32 5, i32 %5) #1
  %35 = call nsz float @llvm.amdgcn.interp.p1(float %29, i32 2, i32 5, i32 %5) #1
  %36 = call nsz float @llvm.amdgcn.interp.p2(float %35, float %30, i32 2, i32 5, i32 %5) #1
  %37 = call nsz float @llvm.amdgcn.interp.p1(float %29, i32 3, i32 5, i32 %5) #1
  %38 = call nsz float @llvm.amdgcn.interp.p2(float %37, float %30, i32 3, i32 5, i32 %5) #1
  %39 = call nsz float @llvm.amdgcn.interp.p1(float %29, i32 0, i32 6, i32 %5) #1
  %40 = call nsz float @llvm.amdgcn.interp.p2(float %39, float %30, i32 0, i32 6, i32 %5) #1
  %41 = call nsz float @llvm.amdgcn.interp.p1(float %29, i32 1, i32 6, i32 %5) #1
  %42 = call nsz float @llvm.amdgcn.interp.p2(float %41, float %30, i32 1, i32 6, i32 %5) #1
  %43 = call nsz float @llvm.amdgcn.interp.p1(float %29, i32 2, i32 6, i32 %5) #1
  %44 = call nsz float @llvm.amdgcn.interp.p2(float %43, float %30, i32 2, i32 6, i32 %5) #1
  %45 = call nsz float @llvm.amdgcn.interp.p1(float %29, i32 3, i32 6, i32 %5) #1
  %46 = call nsz float @llvm.amdgcn.interp.p2(float %45, float %30, i32 3, i32 6, i32 %5) #1
  %47 = call nsz float @llvm.amdgcn.interp.p1(float %29, i32 0, i32 7, i32 %5) #1
  %48 = call nsz float @llvm.amdgcn.interp.p2(float %47, float %30, i32 0, i32 7, i32 %5) #1
  %49 = call nsz float @llvm.SI.load.const.v4i32(<4 x i32> %23, i32 128)
  %50 = call nsz float @llvm.SI.load.const.v4i32(<4 x i32> %23, i32 132)
  %51 = call nsz float @llvm.SI.load.const.v4i32(<4 x i32> %23, i32 144)
  %52 = call nsz float @llvm.SI.load.const.v4i32(<4 x i32> %23, i32 512)
  %53 = call nsz float @llvm.SI.load.const.v4i32(<4 x i32> %23, i32 516)
  %54 = call nsz float @llvm.SI.load.const.v4i32(<4 x i32> %23, i32 524)
  %55 = call nsz float @llvm.SI.load.const.v4i32(<4 x i32> %23, i32 532)
  %56 = call nsz float @llvm.SI.load.const.v4i32(<4 x i32> %23, i32 536)
  %57 = call nsz float @llvm.SI.load.const.v4i32(<4 x i32> %23, i32 540)
  %58 = call nsz float @llvm.SI.load.const.v4i32(<4 x i32> %23, i32 544)
  %59 = call nsz float @llvm.SI.load.const.v4i32(<4 x i32> %23, i32 548)
  %60 = call nsz float @llvm.SI.load.const.v4i32(<4 x i32> %23, i32 552)
  %61 = call nsz float @llvm.SI.load.const.v4i32(<4 x i32> %23, i32 556)
  %62 = call nsz float @llvm.SI.load.const.v4i32(<4 x i32> %23, i32 560)
  %63 = call nsz float @llvm.SI.load.const.v4i32(<4 x i32> %23, i32 564)
  %64 = call nsz float @llvm.SI.load.const.v4i32(<4 x i32> %23, i32 568)
  %65 = call nsz float @llvm.SI.load.const.v4i32(<4 x i32> %23, i32 572)
  %66 = call nsz float @llvm.SI.load.const.v4i32(<4 x i32> %23, i32 576)
  %67 = call nsz float @llvm.SI.load.const.v4i32(<4 x i32> %23, i32 580)
  %68 = call nsz float @llvm.SI.load.const.v4i32(<4 x i32> %23, i32 584)
  %69 = call nsz float @llvm.SI.load.const.v4i32(<4 x i32> %23, i32 588)
  %70 = call nsz float @llvm.SI.load.const.v4i32(<4 x i32> %23, i32 592)
  %71 = call nsz float @llvm.SI.load.const.v4i32(<4 x i32> %23, i32 596)
  %72 = call nsz float @llvm.SI.load.const.v4i32(<4 x i32> %23, i32 600)
  %73 = call nsz float @llvm.SI.load.const.v4i32(<4 x i32> %23, i32 604)
  %74 = call nsz float @llvm.SI.load.const.v4i32(<4 x i32> %23, i32 608)
  %75 = call nsz float @llvm.SI.load.const.v4i32(<4 x i32> %23, i32 612)
  %76 = call nsz float @llvm.SI.load.const.v4i32(<4 x i32> %23, i32 616)
  %77 = call nsz float @llvm.SI.load.const.v4i32(<4 x i32> %23, i32 620)
  %78 = call nsz float @llvm.SI.load.const.v4i32(<4 x i32> %23, i32 624)
  %79 = call nsz float @llvm.SI.load.const.v4i32(<4 x i32> %23, i32 628)
  %80 = call nsz float @llvm.SI.load.const.v4i32(<4 x i32> %23, i32 632)
  %81 = call nsz float @llvm.SI.load.const.v4i32(<4 x i32> %23, i32 636)
  %82 = call nsz float @llvm.SI.load.const.v4i32(<4 x i32> %23, i32 640)
  %83 = call nsz float @llvm.SI.load.const.v4i32(<4 x i32> %23, i32 644)
  %84 = call nsz float @llvm.SI.load.const.v4i32(<4 x i32> %23, i32 648)
  %85 = call nsz float @llvm.SI.load.const.v4i32(<4 x i32> %23, i32 652)
  %86 = call nsz float @llvm.SI.load.const.v4i32(<4 x i32> %23, i32 656)
  %87 = call nsz float @llvm.SI.load.const.v4i32(<4 x i32> %23, i32 660)
  %88 = call nsz float @llvm.SI.load.const.v4i32(<4 x i32> %23, i32 664)
  %89 = call nsz float @llvm.SI.load.const.v4i32(<4 x i32> %23, i32 668)
  %90 = call nsz float @llvm.SI.load.const.v4i32(<4 x i32> %23, i32 672)
  %91 = call nsz float @llvm.SI.load.const.v4i32(<4 x i32> %23, i32 676)
  %92 = call nsz float @llvm.SI.load.const.v4i32(<4 x i32> %23, i32 680)
  %93 = call nsz float @llvm.SI.load.const.v4i32(<4 x i32> %23, i32 684)
  %94 = call nsz float @llvm.SI.load.const.v4i32(<4 x i32> %23, i32 688)
  %95 = call nsz float @llvm.SI.load.const.v4i32(<4 x i32> %23, i32 692)
  %96 = call nsz float @llvm.SI.load.const.v4i32(<4 x i32> %23, i32 696)
  %97 = call nsz float @llvm.SI.load.const.v4i32(<4 x i32> %23, i32 700)
  %98 = call nsz float @llvm.SI.load.const.v4i32(<4 x i32> %23, i32 704)
  %99 = call nsz float @llvm.SI.load.const.v4i32(<4 x i32> %23, i32 708)
  %100 = call nsz float @llvm.SI.load.const.v4i32(<4 x i32> %23, i32 712)
  %101 = call nsz float @llvm.SI.load.const.v4i32(<4 x i32> %23, i32 716)
  %102 = call nsz float @llvm.SI.load.const.v4i32(<4 x i32> %23, i32 720)
  %103 = call nsz float @llvm.SI.load.const.v4i32(<4 x i32> %23, i32 724)
  %104 = call nsz float @llvm.SI.load.const.v4i32(<4 x i32> %23, i32 728)
  %105 = call nsz float @llvm.SI.load.const.v4i32(<4 x i32> %23, i32 732)
  %106 = call nsz float @llvm.SI.load.const.v4i32(<4 x i32> %23, i32 464)
  %107 = call nsz float @llvm.SI.load.const.v4i32(<4 x i32> %23, i32 468)
  %108 = call nsz float @llvm.SI.load.const.v4i32(<4 x i32> %23, i32 472)
  %109 = call nsz float @llvm.SI.load.const.v4i32(<4 x i32> %23, i32 496)
  %110 = call nsz float @llvm.SI.load.const.v4i32(<4 x i32> %23, i32 500)
  %111 = call nsz float @llvm.SI.load.const.v4i32(<4 x i32> %23, i32 504)
  %112 = call nsz float @llvm.SI.load.const.v4i32(<4 x i32> %23, i32 0)
  %113 = call nsz float @llvm.SI.load.const.v4i32(<4 x i32> %23, i32 4)
  %114 = call nsz float @llvm.SI.load.const.v4i32(<4 x i32> %23, i32 8)
  %115 = call nsz float @llvm.SI.load.const.v4i32(<4 x i32> %23, i32 12)
  %116 = call nsz float @llvm.SI.load.const.v4i32(<4 x i32> %23, i32 16)
  %117 = call nsz float @llvm.SI.load.const.v4i32(<4 x i32> %23, i32 20)
  %118 = call nsz float @llvm.SI.load.const.v4i32(<4 x i32> %23, i32 24)
  %119 = call nsz float @llvm.SI.load.const.v4i32(<4 x i32> %23, i32 28)
  %120 = call nsz float @llvm.SI.load.const.v4i32(<4 x i32> %23, i32 32)
  %121 = call nsz float @llvm.SI.load.const.v4i32(<4 x i32> %23, i32 36)
  %122 = call nsz float @llvm.SI.load.const.v4i32(<4 x i32> %23, i32 40)
  %123 = call nsz float @llvm.SI.load.const.v4i32(<4 x i32> %23, i32 44)
  %124 = call nsz float @llvm.SI.load.const.v4i32(<4 x i32> %23, i32 48)
  %125 = call nsz float @llvm.SI.load.const.v4i32(<4 x i32> %23, i32 52)
  %126 = call nsz float @llvm.SI.load.const.v4i32(<4 x i32> %23, i32 56)
  %127 = call nsz float @llvm.SI.load.const.v4i32(<4 x i32> %23, i32 60)
  %128 = call nsz float @llvm.SI.load.const.v4i32(<4 x i32> %23, i32 64)
  %129 = call nsz float @llvm.SI.load.const.v4i32(<4 x i32> %23, i32 68)
  %130 = call nsz float @llvm.SI.load.const.v4i32(<4 x i32> %23, i32 72)
  %131 = call nsz float @llvm.SI.load.const.v4i32(<4 x i32> %23, i32 76)
  %132 = call nsz float @llvm.SI.load.const.v4i32(<4 x i32> %23, i32 160)
  %133 = call nsz float @llvm.SI.load.const.v4i32(<4 x i32> %23, i32 164)
  %134 = call nsz float @llvm.SI.load.const.v4i32(<4 x i32> %23, i32 168)
  %135 = call nsz float @llvm.SI.load.const.v4i32(<4 x i32> %23, i32 172)
  %136 = call nsz float @llvm.SI.load.const.v4i32(<4 x i32> %23, i32 200)
  %137 = call nsz float @llvm.SI.load.const.v4i32(<4 x i32> %23, i32 208)
  %138 = call nsz float @llvm.SI.load.const.v4i32(<4 x i32> %23, i32 212)
  %139 = call nsz float @llvm.SI.load.const.v4i32(<4 x i32> %23, i32 216)
  %140 = call nsz float @llvm.SI.load.const.v4i32(<4 x i32> %23, i32 220)
  %141 = call nsz float @llvm.SI.load.const.v4i32(<4 x i32> %23, i32 224)
  %142 = call nsz float @llvm.SI.load.const.v4i32(<4 x i32> %23, i32 228)
  %143 = call nsz float @llvm.SI.load.const.v4i32(<4 x i32> %23, i32 232)
  %144 = call nsz float @llvm.SI.load.const.v4i32(<4 x i32> %23, i32 236)
  %145 = call nsz float @llvm.SI.load.const.v4i32(<4 x i32> %23, i32 240)
  %146 = call nsz float @llvm.SI.load.const.v4i32(<4 x i32> %23, i32 244)
  %147 = call nsz float @llvm.SI.load.const.v4i32(<4 x i32> %23, i32 248)
  %148 = call nsz float @llvm.SI.load.const.v4i32(<4 x i32> %23, i32 252)
  %149 = call nsz float @llvm.SI.load.const.v4i32(<4 x i32> %23, i32 256)
  %150 = call nsz float @llvm.SI.load.const.v4i32(<4 x i32> %23, i32 260)
  %151 = call nsz float @llvm.SI.load.const.v4i32(<4 x i32> %23, i32 264)
  %152 = call nsz float @llvm.SI.load.const.v4i32(<4 x i32> %23, i32 268)
  %153 = call nsz float @llvm.SI.load.const.v4i32(<4 x i32> %23, i32 272)
  %154 = call nsz float @llvm.SI.load.const.v4i32(<4 x i32> %23, i32 276)
  %155 = call nsz float @llvm.SI.load.const.v4i32(<4 x i32> %23, i32 280)
  %156 = call nsz float @llvm.SI.load.const.v4i32(<4 x i32> %23, i32 284)
  %157 = call nsz float @llvm.SI.load.const.v4i32(<4 x i32> %23, i32 288)
  %158 = call nsz float @llvm.SI.load.const.v4i32(<4 x i32> %23, i32 292)
  %159 = call nsz float @llvm.SI.load.const.v4i32(<4 x i32> %23, i32 296)
  %160 = call nsz float @llvm.SI.load.const.v4i32(<4 x i32> %23, i32 300)
  %161 = call nsz float @llvm.SI.load.const.v4i32(<4 x i32> %23, i32 304)
  %162 = call nsz float @llvm.SI.load.const.v4i32(<4 x i32> %23, i32 308)
  %163 = call nsz float @llvm.SI.load.const.v4i32(<4 x i32> %23, i32 312)
  %164 = icmp eq i32 %18, -1
  %165 = select i1 %164, float -1.000000e+00, float 1.000000e+00
  %166 = call nsz float @llvm.SI.load.const.v4i32(<4 x i32> %23, i32 176)
  %167 = call nsz float @llvm.amdgcn.interp.p1(float %29, i32 0, i32 4, i32 %5) #1
  %168 = call nsz float @llvm.amdgcn.interp.p2(float %167, float %30, i32 0, i32 4, i32 %5) #1
  %169 = fsub nsz float %166, %168
  %170 = call nsz float @llvm.SI.load.const.v4i32(<4 x i32> %23, i32 180)
  %171 = call nsz float @llvm.amdgcn.interp.p1(float %29, i32 1, i32 4, i32 %5) #1
  %172 = call nsz float @llvm.amdgcn.interp.p2(float %171, float %30, i32 1, i32 4, i32 %5) #1
  %173 = fsub nsz float %170, %172
  %174 = call nsz float @llvm.SI.load.const.v4i32(<4 x i32> %23, i32 184)
  %175 = call nsz float @llvm.amdgcn.interp.p1(float %29, i32 2, i32 4, i32 %5) #1
  %176 = call nsz float @llvm.amdgcn.interp.p2(float %175, float %30, i32 2, i32 4, i32 %5) #1
  %177 = fsub nsz float %174, %176
  %178 = fmul nsz float %169, %169
  %179 = fmul nsz float %173, %173
  %180 = fadd nsz float %179, %178
  %181 = fmul nsz float %177, %177
  %182 = fadd nsz float %180, %181
  %183 = call nsz float @llvm.sqrt.f32(float %182) #1
  %184 = fdiv nsz float 1.000000e+00, %183, !fpmath !0
  %185 = fmul nsz float %169, %184
  %186 = fmul nsz float %173, %184
  %187 = fmul nsz float %177, %184
  %188 = call nsz float @llvm.SI.load.const.v4i32(<4 x i32> %23, i32 192)
  %189 = fmul nsz float %188, %14
  %190 = call nsz float @llvm.SI.load.const.v4i32(<4 x i32> %23, i32 196)
  %191 = fmul nsz float %27, %190
  %192 = call nsz float @llvm.SI.load.const.v4i32(<4 x i32> %23, i32 316)
  %193 = fmul nsz float %182, %192
  %194 = call nsz float @llvm.maxnum.f32(float %193, float 0.000000e+00) #1
  %195 = call nsz float @llvm.minnum.f32(float %194, float 1.000000e+00) #1
  %196 = fsub nsz float 1.000000e+00, %195
  %197 = fmul nsz float %185, %32
  %198 = fmul nsz float %186, %34
  %199 = fadd nsz float %198, %197
  %200 = fmul nsz float %187, %36
  %201 = fadd nsz float %199, %200
  %202 = fmul nsz float %185, %38
  %203 = fmul nsz float %186, %40
  %204 = fadd nsz float %203, %202
  %205 = fmul nsz float %187, %42
  %206 = fadd nsz float %204, %205
  %207 = fmul nsz float %185, %44
  %208 = fmul nsz float %186, %46
  %209 = fadd nsz float %208, %207
  %210 = fmul nsz float %187, %48
  %211 = fadd nsz float %209, %210
  %212 = fmul nsz float %211, 0x3FE99999A0000000
  %213 = fadd nsz float %212, 0x3FC99999A0000000
  %214 = call nsz float @llvm.maxnum.f32(float %213, float 0.000000e+00) #1
  %215 = call nsz float @llvm.minnum.f32(float %214, float 1.000000e+00) #1
  %216 = fadd nsz float %215, 0x3F1A36E2E0000000
  %217 = call nsz float @llvm.amdgcn.interp.p1(float %29, i32 0, i32 2, i32 %5) #1
  %218 = call nsz float @llvm.amdgcn.interp.p2(float %217, float %30, i32 0, i32 2, i32 %5) #1
  %219 = call nsz float @llvm.amdgcn.interp.p1(float %29, i32 1, i32 2, i32 %5) #1
  %220 = call nsz float @llvm.amdgcn.interp.p2(float %219, float %30, i32 1, i32 2, i32 %5) #1
  %221 = fmul nsz float %182, 0x3F3A36E2E0000000
  %222 = call nsz float @llvm.maxnum.f32(float %221, float 0.000000e+00) #1
  %223 = call nsz float @llvm.minnum.f32(float %222, float 1.000000e+00) #1
  %224 = fsub nsz float 1.000000e+00, %223
  %225 = call nsz float @llvm.pow.f32(float %216, float 2.500000e-01) #1
  %226 = call nsz float @llvm.SI.load.const.v4i32(<4 x i32> %23, i32 148)
  %227 = fmul nsz float %226, %225
  %228 = fmul nsz float %201, %227
  %229 = fmul nsz float %206, %227
  %230 = fmul nsz float %228, %196
  %231 = fmul nsz float %229, %196
  %232 = bitcast float %218 to i32
  %233 = call i32 @llvm.amdgcn.mbcnt.lo(i32 -1, i32 0) #1
  %234 = call i32 @llvm.amdgcn.mbcnt.hi(i32 -1, i32 %233) #1, !range !1
  %235 = and i32 %234, 60
  %236 = shl nuw nsw i32 %235, 2
  %237 = call i32 @llvm.amdgcn.ds.bpermute(i32 %236, i32 %232) #3
  %238 = shl nuw nsw i32 %235, 2
  %239 = or i32 %238, 4
  %240 = call i32 @llvm.amdgcn.ds.bpermute(i32 %239, i32 %232) #3
  %241 = bitcast i32 %237 to float
  %242 = bitcast i32 %240 to float
  %243 = fsub nsz float %242, %241
  %244 = bitcast float %220 to i32
  %245 = call i32 @llvm.amdgcn.ds.bpermute(i32 %236, i32 %244) #3
  %246 = call i32 @llvm.amdgcn.ds.bpermute(i32 %239, i32 %244) #3
  %247 = bitcast i32 %245 to float
  %248 = bitcast i32 %246 to float
  %249 = fsub nsz float %248, %247
  %250 = fmul nsz float %24, %218
  %251 = fmul nsz float %24, %220
  %252 = bitcast float %250 to i32
  %253 = call i32 @llvm.amdgcn.ds.bpermute(i32 %236, i32 %252) #3
  %254 = shl nuw nsw i32 %235, 2
  %255 = or i32 %254, 8
  %256 = call i32 @llvm.amdgcn.ds.bpermute(i32 %255, i32 %252) #3
  %257 = bitcast i32 %253 to float
  %258 = bitcast i32 %256 to float
  %259 = fsub nsz float %258, %257
  %260 = bitcast float %251 to i32
  %261 = call i32 @llvm.amdgcn.ds.bpermute(i32 %236, i32 %260) #3
  %262 = call i32 @llvm.amdgcn.ds.bpermute(i32 %255, i32 %260) #3
  %263 = bitcast i32 %261 to float
  %264 = bitcast i32 %262 to float
  %265 = fsub nsz float %264, %263
  %266 = fmul nsz float %243, %243
  %267 = fmul nsz float %249, %249
  %268 = fadd nsz float %266, %267
  %269 = fmul nsz float %259, %259
  %270 = fadd nsz float %268, %269
  %271 = fmul nsz float %265, %265
  %272 = fadd nsz float %270, %271
  %273 = call nsz float @llvm.SI.load.const.v4i32(<4 x i32> %23, i32 152)
  %274 = fmul nsz float %272, %273
  %275 = call nsz float @llvm.log2.f32(float %274) #1
  %276 = fmul nsz float %275, 5.000000e-01
  %277 = fmul nsz float %196, 2.400000e+01
  %278 = fsub nsz float 1.000000e+00, %216
  %279 = fmul nsz float %277, %278
  %280 = fadd nsz float %279, 4.000000e+00
  %281 = fmul nsz float %280, %216
  %282 = fdiv nsz float -1.000000e+00, %281
  %283 = fmul nsz float %230, %282
  %284 = fmul nsz float %231, %282
  %285 = fmul nsz float %216, %282
  %286 = getelementptr [0 x <8 x i32>], [0 x <8 x i32>] addrspace(6)* %3, i32 0, i32 32, !amdgpu.uniform !2
  %287 = load <8 x i32>, <8 x i32> addrspace(6)* %286, align 32, !invariant.load !2
  %288 = bitcast [0 x <8 x i32>] addrspace(6)* %3 to [0 x <4 x i32>] addrspace(6)*
  %289 = getelementptr [0 x <4 x i32>], [0 x <4 x i32>] addrspace(6)* %288, i32 0, i32 67, !amdgpu.uniform !2
  %290 = load <4 x i32>, <4 x i32> addrspace(6)* %289, align 16, !invariant.load !2
  %291 = bitcast float %276 to i32
  br label %loop95

loop95:                                           ; preds = %loop95, %main_body
  %TEMP76.x.0 = phi float [ 1.000000e+00, %main_body ], [ %303, %loop95 ]
  %TEMP60.z.0 = phi float [ %224, %main_body ], [ %302, %loop95 ]
  %TEMP60.y.0 = phi float [ %220, %main_body ], [ %301, %loop95 ]
  %TEMP60.x.0 = phi float [ %218, %main_body ], [ %300, %loop95 ]
  %292 = bitcast float %TEMP60.x.0 to i32
  %293 = bitcast float %TEMP60.y.0 to i32
  %294 = insertelement <4 x i32> undef, i32 %292, i32 0
  %295 = insertelement <4 x i32> %294, i32 %293, i32 1
  %296 = insertelement <4 x i32> %295, i32 %291, i32 2
  %297 = bitcast <4 x i32> %296 to <4 x float>
  %298 = call nsz <4 x float> @llvm.amdgcn.image.sample.l.v4f32.v4f32.v8i32(<4 x float> %297, <8 x i32> %287, <4 x i32> %290, i32 15, i1 false, i1 false, i1 false, i1 false, i1 false) #1
  %299 = extractelement <4 x float> %298, i32 1
  %300 = fadd nsz float %TEMP60.x.0, %283
  %301 = fadd nsz float %TEMP60.y.0, %284
  %302 = fadd nsz float %TEMP60.z.0, %285
  %303 = fsub nsz float %302, %299
  %304 = fcmp nsz ugt float %303, 0.000000e+00
  br i1 %304, label %loop95, label %endloop108

endloop108:                                       ; preds = %loop95
  %305 = fsub nsz float %TEMP76.x.0, %303
  %306 = fdiv nsz float 1.000000e+00, %305, !fpmath !0
  %307 = fmul nsz float %303, %306
  %308 = fadd nsz float %307, -1.000000e+00
  %309 = fmul nsz float %308, %283
  %310 = fadd nsz float %309, %300
  %311 = fmul nsz float %308, %284
  %312 = fadd nsz float %311, %301
  %313 = fsub nsz float %310, %218
  %314 = fsub nsz float %312, %220
  %315 = fadd nsz float %218, %313
  %316 = fadd nsz float %220, %314
  %317 = fmul nsz float %313, %161
  %318 = fmul nsz float %314, %162
  %319 = fmul nsz float %317, %145
  %320 = fmul nsz float %317, %146
  %321 = fmul nsz float %318, %147
  %322 = fadd nsz float %321, %319
  %323 = fmul nsz float %318, %148
  %324 = fadd nsz float %323, %320
  %325 = call nsz float @llvm.amdgcn.interp.p1(float %29, i32 2, i32 2, i32 %5) #1
  %326 = call nsz float @llvm.amdgcn.interp.p2(float %325, float %30, i32 2, i32 2, i32 %5) #1
  %327 = fadd nsz float %326, %322
  %328 = call nsz float @llvm.amdgcn.interp.p1(float %29, i32 3, i32 2, i32 %5) #1
  %329 = call nsz float @llvm.amdgcn.interp.p2(float %328, float %30, i32 3, i32 2, i32 %5) #1
  %330 = fadd nsz float %329, %324
  %331 = fmul nsz float %317, %157
  %332 = fmul nsz float %317, %158
  %333 = fmul nsz float %318, %159
  %334 = fadd nsz float %333, %331
  %335 = fmul nsz float %318, %160
  %336 = fadd nsz float %335, %332
  %337 = call nsz float @llvm.amdgcn.interp.p1(float %29, i32 2, i32 1, i32 %5) #1
  %338 = call nsz float @llvm.amdgcn.interp.p2(float %337, float %30, i32 2, i32 1, i32 %5) #1
  %339 = fadd nsz float %338, %334
  %340 = call nsz float @llvm.amdgcn.interp.p1(float %29, i32 3, i32 1, i32 %5) #1
  %341 = call nsz float @llvm.amdgcn.interp.p2(float %340, float %30, i32 3, i32 1, i32 %5) #1
  %342 = fadd nsz float %341, %336
  %343 = fmul nsz float %317, %149
  %344 = fmul nsz float %317, %150
  %345 = fmul nsz float %317, %151
  %346 = fmul nsz float %317, %152
  %347 = fmul nsz float %318, %153
  %348 = fadd nsz float %347, %343
  %349 = fmul nsz float %318, %154
  %350 = fadd nsz float %349, %344
  %351 = fmul nsz float %318, %155
  %352 = fadd nsz float %351, %345
  %353 = fmul nsz float %318, %156
  %354 = fadd nsz float %353, %346
  %355 = call nsz float @llvm.amdgcn.interp.p1(float %29, i32 0, i32 0, i32 %5) #1
  %356 = call nsz float @llvm.amdgcn.interp.p2(float %355, float %30, i32 0, i32 0, i32 %5) #1
  %357 = fadd nsz float %356, %348
  %358 = call nsz float @llvm.amdgcn.interp.p1(float %29, i32 1, i32 0, i32 %5) #1
  %359 = call nsz float @llvm.amdgcn.interp.p2(float %358, float %30, i32 1, i32 0, i32 %5) #1
  %360 = fadd nsz float %359, %350
  %361 = call nsz float @llvm.amdgcn.interp.p1(float %29, i32 2, i32 0, i32 %5) #1
  %362 = call nsz float @llvm.amdgcn.interp.p2(float %361, float %30, i32 2, i32 0, i32 %5) #1
  %363 = fadd nsz float %362, %352
  %364 = call nsz float @llvm.amdgcn.interp.p1(float %29, i32 3, i32 0, i32 %5) #1
  %365 = call nsz float @llvm.amdgcn.interp.p2(float %364, float %30, i32 3, i32 0, i32 %5) #1
  %366 = fadd nsz float %365, %354
  %367 = getelementptr [0 x <8 x i32>], [0 x <8 x i32>] addrspace(6)* %3, i32 0, i32 34, !amdgpu.uniform !2
  %368 = load <8 x i32>, <8 x i32> addrspace(6)* %367, align 32, !invariant.load !2
  %369 = getelementptr [0 x <4 x i32>], [0 x <4 x i32>] addrspace(6)* %288, i32 0, i32 71, !amdgpu.uniform !2
  %370 = load <4 x i32>, <4 x i32> addrspace(6)* %369, align 16, !invariant.load !2
  %371 = bitcast float %339 to i32
  %372 = bitcast float %342 to i32
  %373 = insertelement <2 x i32> undef, i32 %371, i32 0
  %374 = insertelement <2 x i32> %373, i32 %372, i32 1
  %375 = bitcast <2 x i32> %374 to <2 x float>
  %376 = call nsz <4 x float> @llvm.amdgcn.image.sample.v4f32.v2f32.v8i32(<2 x float> %375, <8 x i32> %368, <4 x i32> %370, i32 15, i1 false, i1 false, i1 false, i1 false, i1 false) #1
  %377 = extractelement <4 x float> %376, i32 0
  %378 = extractelement <4 x float> %376, i32 1
  %379 = extractelement <4 x float> %376, i32 2
  %380 = extractelement <4 x float> %376, i32 3
  %381 = fmul nsz float %377, 0x401273D660000000
  %382 = fmul nsz float %378, 0x401273D660000000
  %383 = fmul nsz float %379, 0x401273D660000000
  %384 = fsub nsz float 1.000000e+00, %119
  %385 = fmul nsz float %381, %119
  %386 = fadd nsz float %385, %384
  %387 = fmul nsz float %382, %119
  %388 = fadd nsz float %387, %384
  %389 = fmul nsz float %383, %119
  %390 = fadd nsz float %389, %384
  %391 = getelementptr [0 x <8 x i32>], [0 x <8 x i32>] addrspace(6)* %3, i32 0, i32 20, !amdgpu.uniform !2
  %392 = load <8 x i32>, <8 x i32> addrspace(6)* %391, align 32, !invariant.load !2
  %393 = getelementptr [0 x <4 x i32>], [0 x <4 x i32>] addrspace(6)* %288, i32 0, i32 43, !amdgpu.uniform !2
  %394 = load <4 x i32>, <4 x i32> addrspace(6)* %393, align 16, !invariant.load !2
  %395 = bitcast float %357 to i32
  %396 = bitcast float %360 to i32
  %397 = insertelement <2 x i32> undef, i32 %395, i32 0
  %398 = insertelement <2 x i32> %397, i32 %396, i32 1
  %399 = bitcast <2 x i32> %398 to <2 x float>
  %400 = call nsz <4 x float> @llvm.amdgcn.image.sample.v4f32.v2f32.v8i32(<2 x float> %399, <8 x i32> %392, <4 x i32> %394, i32 15, i1 false, i1 false, i1 false, i1 false, i1 false) #1
  %401 = extractelement <4 x float> %400, i32 0
  %402 = extractelement <4 x float> %400, i32 1
  %403 = extractelement <4 x float> %400, i32 2
  %404 = extractelement <4 x float> %400, i32 3
  %405 = fmul nsz float %401, %112
  %406 = fmul nsz float %402, %113
  %407 = fmul nsz float %403, %114
  %408 = fmul nsz float %404, %115
  %409 = call nsz float @llvm.amdgcn.interp.p1(float %29, i32 0, i32 3, i32 %5) #1
  %410 = call nsz float @llvm.amdgcn.interp.p2(float %409, float %30, i32 0, i32 3, i32 %5) #1
  %411 = fmul nsz float %405, %410
  %412 = call nsz float @llvm.amdgcn.interp.p1(float %29, i32 1, i32 3, i32 %5) #1
  %413 = call nsz float @llvm.amdgcn.interp.p2(float %412, float %30, i32 1, i32 3, i32 %5) #1
  %414 = fmul nsz float %406, %413
  %415 = call nsz float @llvm.amdgcn.interp.p1(float %29, i32 2, i32 3, i32 %5) #1
  %416 = call nsz float @llvm.amdgcn.interp.p2(float %415, float %30, i32 2, i32 3, i32 %5) #1
  %417 = fmul nsz float %407, %416
  %418 = call nsz float @llvm.amdgcn.interp.p1(float %29, i32 3, i32 3, i32 %5) #1
  %419 = call nsz float @llvm.amdgcn.interp.p2(float %418, float %30, i32 3, i32 3, i32 %5) #1
  %420 = fmul nsz float %408, %419
  %421 = fsub nsz float 1.000000e+00, %404
  %422 = fmul nsz float %421, %136
  %423 = fsub nsz float 1.000000e+00, %422
  %424 = fmul nsz float %401, %422
  %425 = fmul nsz float %411, %423
  %426 = fadd nsz float %424, %425
  %427 = fmul nsz float %402, %422
  %428 = fmul nsz float %414, %423
  %429 = fadd nsz float %427, %428
  %430 = fmul nsz float %403, %422
  %431 = fmul nsz float %417, %423
  %432 = fadd nsz float %430, %431
  %433 = getelementptr [0 x <8 x i32>], [0 x <8 x i32>] addrspace(6)* %3, i32 0, i32 30, !amdgpu.uniform !2
  %434 = load <8 x i32>, <8 x i32> addrspace(6)* %433, align 32, !invariant.load !2
  %435 = getelementptr [0 x <4 x i32>], [0 x <4 x i32>] addrspace(6)* %288, i32 0, i32 63, !amdgpu.uniform !2
  %436 = load <4 x i32>, <4 x i32> addrspace(6)* %435, align 16, !invariant.load !2
  %437 = bitcast float %363 to i32
  %438 = bitcast float %366 to i32
  %439 = insertelement <2 x i32> undef, i32 %437, i32 0
  %440 = insertelement <2 x i32> %439, i32 %438, i32 1
  %441 = bitcast <2 x i32> %440 to <2 x float>
  %442 = call nsz <4 x float> @llvm.amdgcn.image.sample.v4f32.v2f32.v8i32(<2 x float> %441, <8 x i32> %434, <4 x i32> %436, i32 15, i1 false, i1 false, i1 false, i1 false, i1 false) #1
  %443 = extractelement <4 x float> %442, i32 0
  %444 = extractelement <4 x float> %442, i32 1
  %445 = extractelement <4 x float> %442, i32 2
  %446 = extractelement <4 x float> %442, i32 3
  %447 = fmul nsz float %141, %446
  %448 = fmul nsz float %142, %443
  %449 = fsub nsz float 1.000000e+00, %447
  %450 = fsub nsz float 1.000000e+00, %448
  %451 = fmul nsz float %426, %386
  %452 = fmul nsz float %429, %388
  %453 = fmul nsz float %432, %390
  %454 = fmul nsz float %420, %380
  %455 = fmul nsz float %182, %163
  %456 = call nsz float @llvm.maxnum.f32(float %455, float 0.000000e+00) #1
  %457 = call nsz float @llvm.minnum.f32(float %456, float 1.000000e+00) #1
  %458 = fsub nsz float 1.000000e+00, %457
  %459 = getelementptr [0 x <8 x i32>], [0 x <8 x i32>] addrspace(6)* %3, i32 0, i32 22, !amdgpu.uniform !2
  %460 = load <8 x i32>, <8 x i32> addrspace(6)* %459, align 32, !invariant.load !2
  %461 = getelementptr [0 x <4 x i32>], [0 x <4 x i32>] addrspace(6)* %288, i32 0, i32 47, !amdgpu.uniform !2
  %462 = load <4 x i32>, <4 x i32> addrspace(6)* %461, align 16, !invariant.load !2
  %463 = bitcast float %315 to i32
  %464 = bitcast float %316 to i32
  %465 = insertelement <2 x i32> undef, i32 %463, i32 0
  %466 = insertelement <2 x i32> %465, i32 %464, i32 1
  %467 = bitcast <2 x i32> %466 to <2 x float>
  %468 = call nsz <4 x float> @llvm.amdgcn.image.sample.v4f32.v2f32.v8i32(<2 x float> %467, <8 x i32> %460, <4 x i32> %462, i32 15, i1 false, i1 false, i1 false, i1 false, i1 false) #1
  %469 = extractelement <4 x float> %468, i32 0
  %470 = extractelement <4 x float> %468, i32 1
  %471 = extractelement <4 x float> %468, i32 2
  %472 = extractelement <4 x float> %468, i32 3
  %473 = fcmp nsz ule float %471, 0.000000e+00
  %474 = select i1 %473, float %469, float %470
  %475 = select i1 %473, float %470, float %472
  %476 = getelementptr [0 x <8 x i32>], [0 x <8 x i32>] addrspace(6)* %3, i32 0, i32 24, !amdgpu.uniform !2
  %477 = load <8 x i32>, <8 x i32> addrspace(6)* %476, align 32, !invariant.load !2
  %478 = getelementptr [0 x <4 x i32>], [0 x <4 x i32>] addrspace(6)* %288, i32 0, i32 51, !amdgpu.uniform !2
  %479 = load <4 x i32>, <4 x i32> addrspace(6)* %478, align 16, !invariant.load !2
  %480 = bitcast float %327 to i32
  %481 = bitcast float %330 to i32
  %482 = insertelement <2 x i32> undef, i32 %480, i32 0
  %483 = insertelement <2 x i32> %482, i32 %481, i32 1
  %484 = bitcast <2 x i32> %483 to <2 x float>
  %485 = call nsz <4 x float> @llvm.amdgcn.image.sample.v4f32.v2f32.v8i32(<2 x float> %484, <8 x i32> %477, <4 x i32> %479, i32 15, i1 false, i1 false, i1 false, i1 false, i1 false) #1
  %486 = extractelement <4 x float> %485, i32 0
  %487 = extractelement <4 x float> %485, i32 1
  %488 = extractelement <4 x float> %485, i32 2
  %489 = extractelement <4 x float> %485, i32 3
  %490 = fcmp nsz ule float %488, 0.000000e+00
  %491 = select i1 %490, float %486, float %487
  %492 = select i1 %490, float %487, float %489
  %493 = fmul nsz float %474, 2.000000e+00
  %494 = fadd nsz float %493, -1.000000e+00
  %495 = fmul nsz float %475, 2.000000e+00
  %496 = fadd nsz float %495, -1.000000e+00
  %497 = fmul nsz float %491, 2.000000e+00
  %498 = fadd nsz float %497, -1.000000e+00
  %499 = fmul nsz float %492, 2.000000e+00
  %500 = fadd nsz float %499, -1.000000e+00
  %501 = fmul nsz float %494, %49
  %502 = fsub nsz float -0.000000e+00, %501
  %503 = fmul nsz float %496, %49
  %504 = fsub nsz float -0.000000e+00, %503
  %505 = fmul nsz float %498, %50
  %506 = fmul nsz float %500, %50
  %507 = fmul nsz float %505, %445
  %508 = fsub nsz float %502, %507
  %509 = fmul nsz float %506, %445
  %510 = fsub nsz float %504, %509
  %511 = fmul nsz float %508, %458
  %512 = fmul nsz float %510, %458
  %513 = fmul nsz float %511, %511
  %514 = fmul nsz float %512, %512
  %515 = fadd nsz float %513, %514
  %516 = fsub nsz float 0x3FF00068E0000000, %515
  %517 = call nsz float @llvm.maxnum.f32(float %516, float 0.000000e+00) #1
  %518 = call nsz float @llvm.minnum.f32(float %517, float 1.000000e+00) #1
  %519 = call nsz float @llvm.sqrt.f32(float %518) #1
  %520 = fmul nsz float %32, %511
  %521 = fmul nsz float %34, %511
  %522 = fmul nsz float %36, %511
  %523 = fmul nsz float %38, %512
  %524 = fadd nsz float %523, %520
  %525 = fmul nsz float %40, %512
  %526 = fadd nsz float %525, %521
  %527 = fmul nsz float %42, %512
  %528 = fadd nsz float %527, %522
  %529 = fmul nsz float %44, %519
  %530 = fadd nsz float %529, %524
  %531 = fmul nsz float %46, %519
  %532 = fadd nsz float %531, %526
  %533 = fmul nsz float %48, %519
  %534 = fadd nsz float %533, %528
  %535 = fmul nsz float %530, %530
  %536 = fmul nsz float %532, %532
  %537 = fadd nsz float %536, %535
  %538 = fmul nsz float %534, %534
  %539 = fadd nsz float %537, %538
  %540 = call nsz float @llvm.sqrt.f32(float %539) #1
  %541 = fdiv nsz float 1.000000e+00, %540, !fpmath !0
  %542 = fmul nsz float %530, %541
  %543 = fmul nsz float %532, %541
  %544 = fmul nsz float %534, %541
  %545 = fmul nsz float %165, %144
  %546 = fcmp nsz ule float %545, 0.000000e+00
  %547 = fsub nsz float -0.000000e+00, %542
  %548 = fsub nsz float -0.000000e+00, %543
  %549 = fsub nsz float -0.000000e+00, %544
  %550 = select i1 %546, float %542, float %547
  %551 = select i1 %546, float %543, float %548
  %552 = select i1 %546, float %544, float %549
  %553 = getelementptr [0 x <8 x i32>], [0 x <8 x i32>] addrspace(6)* %3, i32 0, i32 36, !amdgpu.uniform !2
  %554 = load <8 x i32>, <8 x i32> addrspace(6)* %553, align 32, !invariant.load !2
  %555 = getelementptr [0 x <4 x i32>], [0 x <4 x i32>] addrspace(6)* %288, i32 0, i32 75, !amdgpu.uniform !2
  %556 = load <4 x i32>, <4 x i32> addrspace(6)* %555, align 16, !invariant.load !2
  %557 = bitcast float %189 to i32
  %558 = bitcast float %191 to i32
  %559 = insertelement <2 x i32> undef, i32 %557, i32 0
  %560 = insertelement <2 x i32> %559, i32 %558, i32 1
  %561 = bitcast <2 x i32> %560 to <2 x float>
  %562 = call nsz <4 x float> @llvm.amdgcn.image.sample.v4f32.v2f32.v8i32(<2 x float> %561, <8 x i32> %554, <4 x i32> %556, i32 15, i1 false, i1 false, i1 false, i1 false, i1 false) #1
  %563 = extractelement <4 x float> %562, i32 0
  %564 = extractelement <4 x float> %562, i32 1
  %565 = extractelement <4 x float> %562, i32 2
  %566 = extractelement <4 x float> %562, i32 3
  %567 = fmul nsz float %563, %132
  %568 = fadd nsz float %567, %133
  %569 = fmul nsz float %564, %132
  %570 = fadd nsz float %569, %133
  %571 = fmul nsz float %565, %132
  %572 = fadd nsz float %571, %133
  %573 = fmul nsz float %566, %134
  %574 = fadd nsz float %573, %135
  %575 = fmul nsz float %44, %44
  %576 = fmul nsz float %46, %46
  %577 = fadd nsz float %576, %575
  %578 = fmul nsz float %48, %48
  %579 = fadd nsz float %577, %578
  %580 = call nsz float @llvm.sqrt.f32(float %579) #1
  %581 = fdiv nsz float 1.000000e+00, %580, !fpmath !0
  %582 = fmul nsz float %44, %581
  %583 = fmul nsz float %46, %581
  %584 = fmul nsz float %48, %581
  %585 = fsub nsz float -0.000000e+00, %582
  %586 = fsub nsz float -0.000000e+00, %583
  %587 = fsub nsz float -0.000000e+00, %584
  %588 = select i1 %546, float %582, float %585
  %589 = select i1 %546, float %583, float %586
  %590 = select i1 %546, float %584, float %587
  %591 = call nsz float @llvm.amdgcn.interp.p1(float %29, i32 0, i32 1, i32 %5) #1
  %592 = call nsz float @llvm.amdgcn.interp.p2(float %591, float %30, i32 0, i32 1, i32 %5) #1
  %593 = call nsz float @llvm.amdgcn.interp.p1(float %29, i32 1, i32 1, i32 %5) #1
  %594 = call nsz float @llvm.amdgcn.interp.p2(float %593, float %30, i32 1, i32 1, i32 %5) #1
  %595 = getelementptr [0 x <8 x i32>], [0 x <8 x i32>] addrspace(6)* %3, i32 0, i32 28, !amdgpu.uniform !2
  %596 = load <8 x i32>, <8 x i32> addrspace(6)* %595, align 32, !invariant.load !2
  %597 = getelementptr [0 x <4 x i32>], [0 x <4 x i32>] addrspace(6)* %288, i32 0, i32 59, !amdgpu.uniform !2
  %598 = load <4 x i32>, <4 x i32> addrspace(6)* %597, align 16, !invariant.load !2
  %599 = bitcast float %592 to i32
  %600 = bitcast float %594 to i32
  %601 = insertelement <2 x i32> undef, i32 %599, i32 0
  %602 = insertelement <2 x i32> %601, i32 %600, i32 1
  %603 = bitcast <2 x i32> %602 to <2 x float>
  %604 = call nsz <4 x float> @llvm.amdgcn.image.sample.v4f32.v2f32.v8i32(<2 x float> %603, <8 x i32> %596, <4 x i32> %598, i32 15, i1 false, i1 false, i1 false, i1 false, i1 false) #1
  %605 = extractelement <4 x float> %604, i32 0
  %606 = extractelement <4 x float> %604, i32 1
  %607 = extractelement <4 x float> %604, i32 2
  %608 = extractelement <4 x float> %604, i32 3
  %609 = fmul nsz float %608, 3.200000e+01
  %610 = fadd nsz float %609, -1.600000e+01
  %611 = call nsz float @llvm.exp2.f32(float %610) #1
  %612 = fmul nsz float %605, %611
  %613 = fmul nsz float %606, %611
  %614 = fmul nsz float %607, %611
  %615 = fmul nsz float %124, %612
  %616 = fmul nsz float %125, %613
  %617 = fmul nsz float %126, %614
  %618 = call nsz float @llvm.amdgcn.interp.p1(float %29, i32 1, i32 7, i32 %5) #1
  %619 = call nsz float @llvm.amdgcn.interp.p2(float %618, float %30, i32 1, i32 7, i32 %5) #1
  %620 = fadd nsz float %615, %619
  %621 = call nsz float @llvm.amdgcn.interp.p1(float %29, i32 2, i32 7, i32 %5) #1
  %622 = call nsz float @llvm.amdgcn.interp.p2(float %621, float %30, i32 2, i32 7, i32 %5) #1
  %623 = fadd nsz float %616, %622
  %624 = call nsz float @llvm.amdgcn.interp.p1(float %29, i32 3, i32 7, i32 %5) #1
  %625 = call nsz float @llvm.amdgcn.interp.p2(float %624, float %30, i32 3, i32 7, i32 %5) #1
  %626 = fadd nsz float %617, %625
  %627 = fmul nsz float %620, %574
  %628 = fmul nsz float %623, %574
  %629 = fmul nsz float %626, %574
  %630 = fmul nsz float %574, 5.000000e-01
  %631 = fadd nsz float %630, 5.000000e-01
  %632 = fsub nsz float 1.000000e+00, %123
  %633 = fmul nsz float %550, %123
  %634 = fmul nsz float %588, %632
  %635 = fadd nsz float %633, %634
  %636 = fmul nsz float %551, %123
  %637 = fmul nsz float %589, %632
  %638 = fadd nsz float %636, %637
  %639 = fmul nsz float %552, %123
  %640 = fmul nsz float %590, %632
  %641 = fadd nsz float %639, %640
  %642 = fmul nsz float %635, %185
  %643 = fmul nsz float %638, %186
  %644 = fadd nsz float %643, %642
  %645 = fmul nsz float %641, %187
  %646 = fadd nsz float %644, %645
  %647 = call nsz float @llvm.maxnum.f32(float %646, float 0.000000e+00) #1
  %648 = call nsz float @llvm.minnum.f32(float %647, float 1.000000e+00) #1
  %649 = fsub nsz float 1.000000e+00, %648
  %650 = fmul nsz float %649, %649
  %651 = fmul nsz float %650, %650
  %652 = fmul nsz float %651, %127
  %653 = fmul nsz float %449, %652
  %654 = fmul nsz float %450, %652
  %655 = fsub nsz float %449, %653
  %656 = fsub nsz float %450, %654
  %657 = fmul nsz float %646, %635
  %658 = fmul nsz float %646, %638
  %659 = fmul nsz float %646, %641
  %660 = fmul nsz float %657, 2.000000e+00
  %661 = fmul nsz float %658, 2.000000e+00
  %662 = fmul nsz float %659, 2.000000e+00
  %663 = fsub nsz float %185, %660
  %664 = fsub nsz float %186, %661
  %665 = fsub nsz float %187, %662
  %666 = fadd nsz float %655, %656
  %667 = fmul nsz float %666, 5.000000e-01
  %668 = fsub nsz float 1.000000e+00, %667
  %669 = fmul nsz float %635, %667
  %670 = fmul nsz float %663, %668
  %671 = fsub nsz float %670, %669
  %672 = fmul nsz float %638, %667
  %673 = fmul nsz float %664, %668
  %674 = fsub nsz float %673, %672
  %675 = fmul nsz float %641, %667
  %676 = fmul nsz float %665, %668
  %677 = fsub nsz float %676, %675
  %678 = call nsz float @llvm.fabs.f32(float %671) #5
  %679 = call nsz float @llvm.fabs.f32(float %674) #5
  %680 = call nsz float @llvm.fabs.f32(float %677) #5
  %681 = call nsz float @llvm.maxnum.f32(float %679, float %680) #1
  %682 = call nsz float @llvm.maxnum.f32(float %678, float %681) #1
  %683 = fadd nsz float %682, 0xBF50624DE0000000
  %684 = fcmp nsz oge float %683, %678
  %685 = select i1 %684, float 1.000000e+00, float 0.000000e+00
  %686 = fcmp nsz oge float %683, %679
  %687 = select i1 %686, float 1.000000e+00, float 0.000000e+00
  %688 = fcmp nsz oge float %683, %680
  %689 = select i1 %688, float 1.000000e+00, float 0.000000e+00
  %690 = fdiv nsz float 1.000000e+00, %682, !fpmath !0
  %691 = fsub nsz float -0.000000e+00, %690
  %692 = fmul nsz float %671, %691
  %693 = fmul nsz float %674, %691
  %694 = fmul nsz float %677, %690
  %695 = fadd nsz float %143, -1.000000e+00
  %696 = fmul nsz float %655, %695
  %697 = fmul nsz float %692, %685
  %698 = fmul nsz float %693, %687
  %699 = fmul nsz float %694, %689
  %700 = call nsz float @llvm.floor.f32(float %696) #1
  %701 = fsub nsz float %700, %143
  %702 = call nsz float @llvm.exp2.f32(float %701) #1
  %703 = fmul nsz float %697, %702
  %704 = fmul nsz float %698, %702
  %705 = fmul nsz float %699, %702
  %706 = fsub nsz float %692, %703
  %707 = fsub nsz float %693, %704
  %708 = fsub nsz float %694, %705
  %709 = getelementptr [0 x <8 x i32>], [0 x <8 x i32>] addrspace(6)* %3, i32 0, i32 26, !amdgpu.uniform !2
  %710 = load <8 x i32>, <8 x i32> addrspace(6)* %709, align 32, !invariant.load !2
  %711 = getelementptr [0 x <4 x i32>], [0 x <4 x i32>] addrspace(6)* %288, i32 0, i32 55, !amdgpu.uniform !2
  %712 = load <4 x i32>, <4 x i32> addrspace(6)* %711, align 16, !invariant.load !2
  %713 = call nsz float @llvm.amdgcn.cubetc(float %706, float %707, float %708) #1
  %714 = call nsz float @llvm.amdgcn.cubesc(float %706, float %707, float %708) #1
  %715 = call nsz float @llvm.amdgcn.cubema(float %706, float %707, float %708) #1
  %716 = call nsz float @llvm.amdgcn.cubeid(float %706, float %707, float %708) #1
  %717 = call nsz float @llvm.fabs.f32(float %715) #1
  %718 = fdiv nsz float 1.000000e+00, %717, !fpmath !0
  %719 = fmul nsz float %714, %718
  %720 = fmul nsz float %713, %718
  %721 = fadd nsz float %719, 1.500000e+00
  %722 = fadd nsz float %720, 1.500000e+00
  %723 = bitcast float %721 to i32
  %724 = bitcast float %722 to i32
  %725 = bitcast float %716 to i32
  %726 = bitcast float %696 to i32
  %727 = insertelement <4 x i32> undef, i32 %723, i32 0
  %728 = insertelement <4 x i32> %727, i32 %724, i32 1
  %729 = insertelement <4 x i32> %728, i32 %725, i32 2
  %730 = insertelement <4 x i32> %729, i32 %726, i32 3
  %731 = bitcast <4 x i32> %730 to <4 x float>
  %732 = call nsz <4 x float> @llvm.amdgcn.image.sample.l.v4f32.v4f32.v8i32(<4 x float> %731, <8 x i32> %710, <4 x i32> %712, i32 15, i1 false, i1 false, i1 false, i1 false, i1 true) #1
  %733 = extractelement <4 x float> %732, i32 0
  %734 = extractelement <4 x float> %732, i32 1
  %735 = extractelement <4 x float> %732, i32 2
  %736 = extractelement <4 x float> %732, i32 3
  %737 = fmul nsz float %736, 3.200000e+01
  %738 = fadd nsz float %737, -1.600000e+01
  %739 = call nsz float @llvm.exp2.f32(float %738) #1
  %740 = fmul nsz float %733, %739
  %741 = fmul nsz float %734, %739
  %742 = fmul nsz float %735, %739
  %743 = fmul nsz float %655, 2.000000e+00
  %744 = fadd nsz float %743, -1.000000e+00
  %745 = call nsz float @llvm.maxnum.f32(float %744, float 0.000000e+00) #1
  %746 = call nsz float @llvm.minnum.f32(float %745, float 1.000000e+00) #1
  %747 = fmul nsz float %740, %120
  %748 = fmul nsz float %741, %121
  %749 = fmul nsz float %742, %122
  %750 = fsub nsz float 1.000000e+00, %746
  %751 = fmul nsz float %747, %750
  %752 = fadd nsz float %746, %751
  %753 = fmul nsz float %748, %750
  %754 = fadd nsz float %746, %753
  %755 = fmul nsz float %749, %750
  %756 = fadd nsz float %746, %755
  %757 = fmul nsz float %451, %752
  %758 = fmul nsz float %452, %754
  %759 = fmul nsz float %453, %756
  %760 = fmul nsz float %656, %695
  %761 = call nsz float @llvm.floor.f32(float %760) #1
  %762 = fsub nsz float %761, %143
  %763 = call nsz float @llvm.exp2.f32(float %762) #1
  %764 = fmul nsz float %697, %763
  %765 = fmul nsz float %698, %763
  %766 = fmul nsz float %699, %763
  %767 = fsub nsz float %692, %764
  %768 = fsub nsz float %693, %765
  %769 = fsub nsz float %694, %766
  %770 = call nsz float @llvm.amdgcn.cubetc(float %767, float %768, float %769) #1
  %771 = call nsz float @llvm.amdgcn.cubesc(float %767, float %768, float %769) #1
  %772 = call nsz float @llvm.amdgcn.cubema(float %767, float %768, float %769) #1
  %773 = call nsz float @llvm.amdgcn.cubeid(float %767, float %768, float %769) #1
  %774 = call nsz float @llvm.fabs.f32(float %772) #1
  %775 = fdiv nsz float 1.000000e+00, %774, !fpmath !0
  %776 = fmul nsz float %771, %775
  %777 = fmul nsz float %770, %775
  %778 = fadd nsz float %776, 1.500000e+00
  %779 = fadd nsz float %777, 1.500000e+00
  %780 = bitcast float %778 to i32
  %781 = bitcast float %779 to i32
  %782 = bitcast float %773 to i32
  %783 = bitcast float %760 to i32
  %784 = insertelement <4 x i32> undef, i32 %780, i32 0
  %785 = insertelement <4 x i32> %784, i32 %781, i32 1
  %786 = insertelement <4 x i32> %785, i32 %782, i32 2
  %787 = insertelement <4 x i32> %786, i32 %783, i32 3
  %788 = bitcast <4 x i32> %787 to <4 x float>
  %789 = call nsz <4 x float> @llvm.amdgcn.image.sample.l.v4f32.v4f32.v8i32(<4 x float> %788, <8 x i32> %710, <4 x i32> %712, i32 15, i1 false, i1 false, i1 false, i1 false, i1 true) #1
  %790 = extractelement <4 x float> %789, i32 0
  %791 = extractelement <4 x float> %789, i32 1
  %792 = extractelement <4 x float> %789, i32 2
  %793 = extractelement <4 x float> %789, i32 3
  %794 = fmul nsz float %793, 3.200000e+01
  %795 = fadd nsz float %794, -1.600000e+01
  %796 = call nsz float @llvm.exp2.f32(float %795) #1
  %797 = fmul nsz float %790, %796
  %798 = fmul nsz float %791, %796
  %799 = fmul nsz float %792, %796
  %800 = fmul nsz float %116, %444
  %801 = fmul nsz float %117, %444
  %802 = fmul nsz float %118, %444
  %803 = fmul nsz float %800, %444
  %804 = fmul nsz float %801, %444
  %805 = fmul nsz float %802, %444
  %806 = fmul nsz float %656, 2.000000e+00
  %807 = fadd nsz float %806, -1.000000e+00
  %808 = call nsz float @llvm.maxnum.f32(float %807, float 0.000000e+00) #1
  %809 = call nsz float @llvm.minnum.f32(float %808, float 1.000000e+00) #1
  %810 = fmul nsz float %797, %120
  %811 = fmul nsz float %798, %121
  %812 = fmul nsz float %799, %122
  %813 = fmul nsz float %803, %810
  %814 = fmul nsz float %804, %811
  %815 = fmul nsz float %805, %812
  %816 = fsub nsz float 1.000000e+00, %809
  %817 = fmul nsz float %803, %809
  %818 = fmul nsz float %813, %816
  %819 = fadd nsz float %817, %818
  %820 = fmul nsz float %804, %809
  %821 = fmul nsz float %814, %816
  %822 = fadd nsz float %820, %821
  %823 = fmul nsz float %805, %809
  %824 = fmul nsz float %815, %816
  %825 = fadd nsz float %823, %824
  %826 = fsub nsz float 1.000000e+00, %652
  %827 = fmul nsz float %803, %826
  %828 = fadd nsz float %652, %827
  %829 = fmul nsz float %804, %826
  %830 = fadd nsz float %652, %829
  %831 = fmul nsz float %805, %826
  %832 = fadd nsz float %652, %831
  %833 = fsub nsz float 1.000000e+00, %828
  %834 = fmul nsz float %819, %828
  %835 = fmul nsz float %757, %833
  %836 = fadd nsz float %834, %835
  %837 = fsub nsz float 1.000000e+00, %830
  %838 = fmul nsz float %822, %830
  %839 = fmul nsz float %758, %837
  %840 = fadd nsz float %838, %839
  %841 = fsub nsz float 1.000000e+00, %832
  %842 = fmul nsz float %825, %832
  %843 = fmul nsz float %759, %841
  %844 = fadd nsz float %842, %843
  %845 = fmul nsz float %627, %836
  %846 = fmul nsz float %628, %840
  %847 = fmul nsz float %629, %844
  %848 = fmul nsz float %568, %631
  %849 = fmul nsz float %570, %631
  %850 = fmul nsz float %572, %631
  %851 = fmul nsz float %848, %451
  %852 = fadd nsz float %851, %845
  %853 = fmul nsz float %849, %452
  %854 = fadd nsz float %853, %846
  %855 = fmul nsz float %850, %453
  %856 = fadd nsz float %855, %847
  %857 = fmul nsz float %511, 0x3FDB272440000000
  %858 = fmul nsz float %512, 0xBFDB272440000000
  %859 = fadd nsz float %858, %857
  %860 = fmul nsz float %519, 0x3FE99999A0000000
  %861 = fadd nsz float %859, %860
  %862 = fmul nsz float %861, 1.250000e+00
  %863 = fmul nsz float %862, %862
  %864 = fmul nsz float %852, %863
  %865 = fmul nsz float %854, %863
  %866 = fmul nsz float %856, %863
  %867 = fmul nsz float %109, %550
  %868 = fsub nsz float -0.000000e+00, %867
  %869 = fmul nsz float %110, %551
  %870 = fsub nsz float %868, %869
  %871 = fmul nsz float %111, %552
  %872 = fsub nsz float %870, %871
  %873 = call nsz float @llvm.maxnum.f32(float %872, float 0.000000e+00) #1
  %874 = call nsz float @llvm.minnum.f32(float %873, float 1.000000e+00) #1
  %875 = fsub nsz float %185, %109
  %876 = fsub nsz float %186, %110
  %877 = fsub nsz float %187, %111
  %878 = fmul nsz float %875, %875
  %879 = fmul nsz float %876, %876
  %880 = fadd nsz float %879, %878
  %881 = fmul nsz float %877, %877
  %882 = fadd nsz float %880, %881
  %883 = call nsz float @llvm.sqrt.f32(float %882) #1
  %884 = fdiv nsz float 1.000000e+00, %883, !fpmath !0
  %885 = fmul nsz float %875, %884
  %886 = fmul nsz float %876, %884
  %887 = fmul nsz float %877, %884
  %888 = fmul nsz float %885, %185
  %889 = fmul nsz float %886, %186
  %890 = fadd nsz float %889, %888
  %891 = fmul nsz float %887, %187
  %892 = fadd nsz float %890, %891
  %893 = call nsz float @llvm.maxnum.f32(float %892, float 0.000000e+00) #1
  %894 = call nsz float @llvm.minnum.f32(float %893, float 1.000000e+00) #1
  %895 = fsub nsz float 1.000000e+00, %894
  %896 = fmul nsz float %895, %895
  %897 = fmul nsz float %896, %896
  %898 = fmul nsz float %897, %127
  %899 = fmul nsz float %449, %898
  %900 = fmul nsz float %450, %898
  %901 = fsub nsz float %449, %899
  %902 = fsub nsz float %450, %900
  %903 = fmul nsz float %901, %901
  %904 = fmul nsz float %902, %902
  %905 = fmul nsz float %903, %903
  %906 = fadd nsz float %905, 0x3E7AD7F2A0000000
  %907 = fmul nsz float %904, %904
  %908 = fadd nsz float %907, 0x3E7AD7F2A0000000
  %909 = call nsz float @llvm.maxnum.f32(float %906, float 0.000000e+00) #1
  %910 = call nsz float @llvm.minnum.f32(float %909, float 1.000000e+00) #1
  %911 = call nsz float @llvm.maxnum.f32(float %908, float 0.000000e+00) #1
  %912 = call nsz float @llvm.minnum.f32(float %911, float 1.000000e+00) #1
  %913 = fmul nsz float %885, %550
  %914 = fmul nsz float %886, %551
  %915 = fadd nsz float %914, %913
  %916 = fmul nsz float %887, %552
  %917 = fadd nsz float %915, %916
  %918 = bitcast float %917 to i32
  %919 = call i32 @llvm.amdgcn.ds.bpermute(i32 %236, i32 %918) #3
  %920 = call i32 @llvm.amdgcn.ds.bpermute(i32 %239, i32 %918) #3
  %921 = bitcast i32 %919 to float
  %922 = bitcast i32 %920 to float
  %923 = fsub nsz float %922, %921
  %924 = call nsz float @llvm.fabs.f32(float %923) #5
  %925 = fmul nsz float %24, %917
  %926 = bitcast float %925 to i32
  %927 = call i32 @llvm.amdgcn.ds.bpermute(i32 %236, i32 %926) #3
  %928 = call i32 @llvm.amdgcn.ds.bpermute(i32 %255, i32 %926) #3
  %929 = bitcast i32 %927 to float
  %930 = bitcast i32 %928 to float
  %931 = fsub nsz float %930, %929
  %932 = call nsz float @llvm.fabs.f32(float %931) #5
  %933 = fadd nsz float %924, %932
  %934 = fmul nsz float %933, 5.000000e-01
  %935 = fadd nsz float %934, 0x3EE4F8B580000000
  %936 = fsub nsz float %917, %935
  %937 = fadd nsz float %935, %917
  %938 = call nsz float @llvm.maxnum.f32(float %936, float 0.000000e+00) #1
  %939 = call nsz float @llvm.minnum.f32(float %938, float 1.000000e+00) #1
  %940 = call nsz float @llvm.maxnum.f32(float %937, float 0.000000e+00) #1
  %941 = call nsz float @llvm.minnum.f32(float %940, float 1.000000e+00) #1
  %942 = fsub nsz float %941, %939
  %943 = fadd nsz float %942, 0x3EB0C6F7A0000000
  %944 = fmul nsz float %939, %910
  %945 = fmul nsz float %941, %910
  %946 = fmul nsz float %939, %912
  %947 = fmul nsz float %941, %912
  %948 = fadd nsz float %910, -1.000000e+00
  %949 = fadd nsz float %912, -1.000000e+00
  %950 = fmul nsz float %939, %948
  %951 = fadd nsz float %950, 1.000000e+00
  %952 = fmul nsz float %941, %948
  %953 = fadd nsz float %952, 1.000000e+00
  %954 = fmul nsz float %939, %949
  %955 = fadd nsz float %954, 1.000000e+00
  %956 = fmul nsz float %941, %949
  %957 = fadd nsz float %956, 1.000000e+00
  %958 = fdiv nsz float 1.000000e+00, %951, !fpmath !0
  %959 = fdiv nsz float 1.000000e+00, %953, !fpmath !0
  %960 = fdiv nsz float 1.000000e+00, %955, !fpmath !0
  %961 = fdiv nsz float 1.000000e+00, %957, !fpmath !0
  %962 = fmul nsz float %944, %958
  %963 = fmul nsz float %945, %959
  %964 = fmul nsz float %946, %960
  %965 = fmul nsz float %947, %961
  %966 = call nsz float @llvm.maxnum.f32(float %962, float 0.000000e+00) #1
  %967 = call nsz float @llvm.minnum.f32(float %966, float 1.000000e+00) #1
  %968 = call nsz float @llvm.maxnum.f32(float %963, float 0.000000e+00) #1
  %969 = call nsz float @llvm.minnum.f32(float %968, float 1.000000e+00) #1
  %970 = call nsz float @llvm.maxnum.f32(float %964, float 0.000000e+00) #1
  %971 = call nsz float @llvm.minnum.f32(float %970, float 1.000000e+00) #1
  %972 = call nsz float @llvm.maxnum.f32(float %965, float 0.000000e+00) #1
  %973 = call nsz float @llvm.minnum.f32(float %972, float 1.000000e+00) #1
  %974 = fsub nsz float %969, %967
  %975 = fsub nsz float %973, %971
  %976 = fmul nsz float %550, %185
  %977 = fmul nsz float %551, %186
  %978 = fadd nsz float %977, %976
  %979 = fmul nsz float %552, %187
  %980 = fadd nsz float %978, %979
  %981 = call nsz float @llvm.maxnum.f32(float %980, float 0.000000e+00) #1
  %982 = call nsz float @llvm.minnum.f32(float %981, float 1.000000e+00) #1
  %983 = fmul nsz float %982, %874
  %984 = call nsz float @llvm.maxnum.f32(float %983, float 0x3F847AE140000000) #1
  %985 = call nsz float @llvm.sqrt.f32(float %984) #1
  %986 = fsub nsz float 1.000000e+00, %910
  %987 = fmul nsz float %985, %986
  %988 = fadd nsz float %910, %987
  %989 = fsub nsz float 1.000000e+00, %912
  %990 = fmul nsz float %985, %989
  %991 = fadd nsz float %912, %990
  %992 = fmul nsz float %943, %988
  %993 = fmul nsz float %943, %991
  %994 = fdiv nsz float 1.000000e+00, %992, !fpmath !0
  %995 = fdiv nsz float 1.000000e+00, %993, !fpmath !0
  %996 = fmul nsz float %974, %994
  %997 = fmul nsz float %975, %995
  %998 = fmul nsz float %451, %996
  %999 = fmul nsz float %452, %996
  %1000 = fmul nsz float %453, %996
  %1001 = fsub nsz float 1.000000e+00, %803
  %1002 = fmul nsz float %997, %803
  %1003 = fmul nsz float %998, %1001
  %1004 = fadd nsz float %1002, %1003
  %1005 = fsub nsz float 1.000000e+00, %804
  %1006 = fmul nsz float %997, %804
  %1007 = fmul nsz float %999, %1005
  %1008 = fadd nsz float %1006, %1007
  %1009 = fsub nsz float 1.000000e+00, %805
  %1010 = fmul nsz float %997, %805
  %1011 = fmul nsz float %1000, %1009
  %1012 = fadd nsz float %1010, %1011
  %1013 = fmul nsz float %1004, %874
  %1014 = fmul nsz float %1008, %874
  %1015 = fmul nsz float %1012, %874
  %1016 = fmul nsz float %1013, %106
  %1017 = fmul nsz float %1014, %107
  %1018 = fmul nsz float %1015, %108
  %1019 = fsub nsz float %78, %168
  %1020 = fsub nsz float %79, %172
  %1021 = fsub nsz float %80, %176
  %1022 = fmul nsz float %1019, %1019
  %1023 = fmul nsz float %1020, %1020
  %1024 = fadd nsz float %1023, %1022
  %1025 = fmul nsz float %1021, %1021
  %1026 = fadd nsz float %1024, %1025
  %1027 = call nsz float @llvm.amdgcn.interp.p1(float %29, i32 3, i32 4, i32 %5) #1
  %1028 = call nsz float @llvm.amdgcn.interp.p2(float %1027, float %30, i32 3, i32 4, i32 %5) #1
  %1029 = fmul nsz float %168, %66
  %1030 = fmul nsz float %172, %67
  %1031 = fadd nsz float %1029, %1030
  %1032 = fmul nsz float %176, %68
  %1033 = fadd nsz float %1031, %1032
  %1034 = fmul nsz float %1028, %69
  %1035 = fadd nsz float %1033, %1034
  %1036 = fmul nsz float %168, %70
  %1037 = fmul nsz float %172, %71
  %1038 = fadd nsz float %1036, %1037
  %1039 = fmul nsz float %176, %72
  %1040 = fadd nsz float %1038, %1039
  %1041 = fmul nsz float %1028, %73
  %1042 = fadd nsz float %1040, %1041
  %1043 = fmul nsz float %168, %74
  %1044 = fmul nsz float %172, %75
  %1045 = fadd nsz float %1043, %1044
  %1046 = fmul nsz float %176, %76
  %1047 = fadd nsz float %1045, %1046
  %1048 = fmul nsz float %1028, %77
  %1049 = fadd nsz float %1047, %1048
  %1050 = fmul nsz float %1035, 5.000000e-01
  %1051 = fadd nsz float %1050, 5.000000e-01
  %1052 = fmul nsz float %1042, 5.000000e-01
  %1053 = fadd nsz float %1052, 5.000000e-01
  %1054 = fmul nsz float %1051, %58
  %1055 = fadd nsz float %1054, %60
  %1056 = fmul nsz float %1053, %59
  %1057 = fadd nsz float %1056, %61
  %1058 = getelementptr [0 x <8 x i32>], [0 x <8 x i32>] addrspace(6)* %3, i32 0, i32 18, !amdgpu.uniform !2
  %1059 = load <8 x i32>, <8 x i32> addrspace(6)* %1058, align 32, !invariant.load !2
  %1060 = getelementptr [0 x <4 x i32>], [0 x <4 x i32>] addrspace(6)* %288, i32 0, i32 39, !amdgpu.uniform !2
  %1061 = load <4 x i32>, <4 x i32> addrspace(6)* %1060, align 16, !invariant.load !2
  %1062 = bitcast float %1055 to i32
  %1063 = bitcast float %1057 to i32
  %1064 = insertelement <2 x i32> undef, i32 %1062, i32 0
  %1065 = insertelement <2 x i32> %1064, i32 %1063, i32 1
  %1066 = bitcast <2 x i32> %1065 to <2 x float>
  %1067 = call nsz <4 x float> @llvm.amdgcn.image.sample.v4f32.v2f32.v8i32(<2 x float> %1066, <8 x i32> %1059, <4 x i32> %1061, i32 15, i1 false, i1 false, i1 false, i1 false, i1 false) #1
  %1068 = extractelement <4 x float> %1067, i32 0
  %1069 = extractelement <4 x float> %1067, i32 1
  %1070 = extractelement <4 x float> %1067, i32 2
  %1071 = fmul nsz float %1026, %81
  %1072 = call nsz float @llvm.maxnum.f32(float %1071, float 0.000000e+00) #1
  %1073 = call nsz float @llvm.minnum.f32(float %1072, float 1.000000e+00) #1
  %1074 = fsub nsz float 1.000000e+00, %1073
  %1075 = fmul nsz float %1068, %1074
  %1076 = fadd nsz float %1073, %1075
  %1077 = fmul nsz float %1069, %1074
  %1078 = fadd nsz float %1073, %1077
  %1079 = fmul nsz float %1070, %1074
  %1080 = fadd nsz float %1073, %1079
  %1081 = call nsz float @llvm.sqrt.f32(float %1026) #1
  %1082 = fsub nsz float %1081, %65
  %1083 = fsub nsz float %64, %65
  %1084 = fdiv nsz float 1.000000e+00, %1083, !fpmath !0
  %1085 = fmul nsz float %1082, %1084
  %1086 = fcmp nsz olt float %1081, %64
  br i1 %1086, label %endif374, label %else364

else364:                                          ; preds = %endloop108
  %1087 = fsub nsz float %1081, %63
  %1088 = fsub nsz float %62, %63
  %1089 = fdiv nsz float 1.000000e+00, %1088, !fpmath !0
  %1090 = fmul nsz float %1087, %1089
  %1091 = fsub nsz float %1081, %64
  %1092 = fsub nsz float %63, %64
  %1093 = fdiv nsz float 1.000000e+00, %1092, !fpmath !0
  %1094 = fmul nsz float %1091, %1093
  %1095 = fcmp nsz olt float %1081, %63
  %1096 = select i1 %1095, float %102, float %98
  %1097 = select i1 %1095, float %103, float %99
  %1098 = select i1 %1095, float %100, float %98
  %1099 = select i1 %1095, float %101, float %99
  %1100 = select i1 %1095, float %1094, float 1.000000e+00
  %1101 = xor i1 %1095, true
  %1102 = fcmp nsz olt float %1081, %62
  %1103 = and i1 %1102, %1101
  %1104 = select i1 %1103, float %100, float %1096
  %1105 = select i1 %1103, float %101, float %1097
  %1106 = select i1 %1103, float %1090, float %1100
  br label %endif374

endif374:                                         ; preds = %endloop108, %else364
  %TEMP289.w.0 = phi float [ %1099, %else364 ], [ %103, %endloop108 ]
  %TEMP289.z.0 = phi float [ %1098, %else364 ], [ %102, %endloop108 ]
  %TEMP289.y.0 = phi float [ %1105, %else364 ], [ %105, %endloop108 ]
  %TEMP289.x.0 = phi float [ %1104, %else364 ], [ %104, %endloop108 ]
  %TEMP288.x.0 = phi float [ %1106, %else364 ], [ %1085, %endloop108 ]
  br i1 %1086, label %endif389, label %else381

else381:                                          ; preds = %endif374
  %1107 = fcmp nsz olt float %1081, %63
  %1108 = select i1 %1107, float %90, float %82
  %1109 = select i1 %1107, float %91, float %83
  %1110 = select i1 %1107, float %92, float %84
  %1111 = select i1 %1107, float %93, float %85
  %1112 = select i1 %1107, float %86, float %82
  %1113 = select i1 %1107, float %87, float %83
  %1114 = select i1 %1107, float %88, float %84
  %1115 = select i1 %1107, float %89, float %85
  %1116 = xor i1 %1107, true
  %1117 = fcmp nsz olt float %1081, %62
  %1118 = and i1 %1117, %1116
  %1119 = select i1 %1118, float %86, float %1108
  %1120 = select i1 %1118, float %87, float %1109
  %1121 = select i1 %1118, float %88, float %1110
  %1122 = select i1 %1118, float %89, float %1111
  br label %endif389

endif389:                                         ; preds = %endif374, %else381
  %TEMP300.w.0 = phi float [ %1115, %else381 ], [ %93, %endif374 ]
  %TEMP300.z.0 = phi float [ %1114, %else381 ], [ %92, %endif374 ]
  %TEMP300.y.0 = phi float [ %1113, %else381 ], [ %91, %endif374 ]
  %TEMP300.x.0 = phi float [ %1112, %else381 ], [ %90, %endif374 ]
  %TEMP299.w.0 = phi float [ %1122, %else381 ], [ %97, %endif374 ]
  %TEMP299.z.0 = phi float [ %1121, %else381 ], [ %96, %endif374 ]
  %TEMP299.y.0 = phi float [ %1120, %else381 ], [ %95, %endif374 ]
  %TEMP299.x.0 = phi float [ %1119, %else381 ], [ %94, %endif374 ]
  %1123 = fmul nsz float %55, 2.000000e+00
  %1124 = fsub nsz float 1.000000e+00, %1123
  %1125 = call nsz float @llvm.fabs.f32(float %1035) #5
  %1126 = call nsz float @llvm.fabs.f32(float %1042) #5
  %1127 = fcmp nsz oge float %1124, %1125
  %1128 = select i1 %1127, float 1.000000e+00, float 0.000000e+00
  %1129 = fcmp nsz oge float %1124, %1126
  %1130 = select i1 %1129, float 1.000000e+00, float 0.000000e+00
  %1131 = fmul nsz float %1128, %1130
  %1132 = fmul nsz float %1049, %1131
  %1133 = fmul nsz float %1035, %TEMP299.x.0
  %1134 = fadd nsz float %1133, %TEMP299.z.0
  %1135 = fmul nsz float %1042, %TEMP299.y.0
  %1136 = fadd nsz float %1135, %TEMP299.w.0
  %1137 = fmul nsz float %1035, %TEMP300.x.0
  %1138 = fadd nsz float %1137, %TEMP300.z.0
  %1139 = fmul nsz float %1042, %TEMP300.y.0
  %1140 = fadd nsz float %1139, %TEMP300.w.0
  %1141 = fadd nsz float %TEMP288.x.0, -1.000000e+00
  %1142 = fmul nsz float %1141, %54
  %1143 = fadd nsz float %1142, 1.000000e+00
  %1144 = call nsz float @llvm.maxnum.f32(float %1143, float 0.000000e+00) #1
  %1145 = call nsz float @llvm.minnum.f32(float %1144, float 1.000000e+00) #1
  %1146 = getelementptr [0 x <8 x i32>], [0 x <8 x i32>] addrspace(6)* %3, i32 0, i32 16, !amdgpu.uniform !2
  %1147 = load <8 x i32>, <8 x i32> addrspace(6)* %1146, align 32, !invariant.load !2
  %1148 = getelementptr [0 x <4 x i32>], [0 x <4 x i32>] addrspace(6)* %288, i32 0, i32 35, !amdgpu.uniform !2
  %1149 = load <4 x i32>, <4 x i32> addrspace(6)* %1148, align 16, !invariant.load !2
  %1150 = bitcast float %1134 to i32
  %1151 = bitcast float %1136 to i32
  %1152 = insertelement <2 x i32> undef, i32 %1150, i32 0
  %1153 = insertelement <2 x i32> %1152, i32 %1151, i32 1
  %1154 = bitcast <2 x i32> %1153 to <2 x float>
  %1155 = call nsz <4 x float> @llvm.amdgcn.image.sample.lz.v4f32.v2f32.v8i32(<2 x float> %1154, <8 x i32> %1147, <4 x i32> %1149, i32 15, i1 false, i1 false, i1 false, i1 false, i1 false) #1
  %1156 = extractelement <4 x float> %1155, i32 0
  %1157 = extractelement <4 x float> %1155, i32 1
  %1158 = bitcast float %1138 to i32
  %1159 = bitcast float %1140 to i32
  %1160 = insertelement <2 x i32> undef, i32 %1158, i32 0
  %1161 = insertelement <2 x i32> %1160, i32 %1159, i32 1
  %1162 = bitcast <2 x i32> %1161 to <2 x float>
  %1163 = call nsz <4 x float> @llvm.amdgcn.image.sample.lz.v4f32.v2f32.v8i32(<2 x float> %1162, <8 x i32> %1147, <4 x i32> %1149, i32 15, i1 false, i1 false, i1 false, i1 false, i1 false) #1
  %1164 = extractelement <4 x float> %1163, i32 0
  %1165 = extractelement <4 x float> %1163, i32 1
  %1166 = fsub nsz float 1.000000e+00, %1157
  %1167 = fsub nsz float 1.000000e+00, %1165
  %1168 = fmul nsz float %1166, 2.500000e-01
  %1169 = fmul nsz float %1167, 2.500000e-01
  %1170 = fsub nsz float %1156, %1168
  %1171 = fsub nsz float %1164, %1169
  %1172 = fmul nsz float %1132, %TEMP289.x.0
  %1173 = fadd nsz float %1172, %TEMP289.y.0
  %1174 = fmul nsz float %1132, %TEMP289.z.0
  %1175 = fadd nsz float %1174, %TEMP289.w.0
  %1176 = call nsz float @llvm.maxnum.f32(float %1173, float 0.000000e+00) #1
  %1177 = call nsz float @llvm.minnum.f32(float %1176, float 1.000000e+00) #1
  %1178 = call nsz float @llvm.maxnum.f32(float %1175, float 0.000000e+00) #1
  %1179 = call nsz float @llvm.minnum.f32(float %1178, float 1.000000e+00) #1
  %1180 = fsub nsz float %1156, %1177
  %1181 = fsub nsz float %1164, %1179
  %1182 = fmul nsz float %1156, %1156
  %1183 = fmul nsz float %1164, %1164
  %1184 = fsub nsz float %1170, %1182
  %1185 = fsub nsz float %1171, %1183
  %1186 = call nsz float @llvm.maxnum.f32(float %1184, float %52) #1
  %1187 = call nsz float @llvm.maxnum.f32(float %1185, float %52) #1
  %1188 = fmul nsz float %1180, %1180
  %1189 = fadd nsz float %1188, %1186
  %1190 = fmul nsz float %1181, %1181
  %1191 = fadd nsz float %1190, %1187
  %1192 = fdiv nsz float 1.000000e+00, %1189, !fpmath !0
  %1193 = fdiv nsz float 1.000000e+00, %1191, !fpmath !0
  %1194 = fmul nsz float %1186, %1192
  %1195 = fmul nsz float %1187, %1193
  %1196 = fcmp nsz ult float %1180, 0.000000e+00
  %1197 = select i1 %1196, float %1194, float 1.000000e+00
  %1198 = fcmp nsz ult float %1181, 0.000000e+00
  %1199 = select i1 %1198, float %1195, float 1.000000e+00
  %1200 = fsub nsz float 1.000000e+00, %1145
  %1201 = fmul nsz float %1199, %1145
  %1202 = fmul nsz float %1197, %1200
  %1203 = fadd nsz float %1201, %1202
  %1204 = call nsz float @llvm.pow.f32(float %1203, float %53) #1
  %1205 = fmul nsz float %1204, %56
  %1206 = fadd nsz float %1205, %57
  %1207 = call nsz float @llvm.maxnum.f32(float %1206, float 0.000000e+00) #1
  %1208 = call nsz float @llvm.minnum.f32(float %1207, float 1.000000e+00) #1
  %1209 = fmul nsz float %1076, %1208
  %1210 = fmul nsz float %1078, %1208
  %1211 = fmul nsz float %1080, %1208
  %1212 = fmul nsz float %1016, %1209
  %1213 = fmul nsz float %1017, %1210
  %1214 = fmul nsz float %1018, %1211
  %1215 = fmul nsz float %1212, %631
  %1216 = fadd nsz float %1215, %864
  %1217 = fmul nsz float %1213, %631
  %1218 = fadd nsz float %1217, %865
  %1219 = fmul nsz float %1214, %631
  %1220 = fadd nsz float %1219, %866
  %1221 = fsub nsz float 1.000000e+00, %380
  %1222 = fmul nsz float %299, %380
  %1223 = fadd nsz float %1222, %1221
  %1224 = fsub nsz float 1.000000e+00, %51
  %1225 = fmul nsz float %1223, %51
  %1226 = fadd nsz float %1225, %1224
  %1227 = fmul nsz float %1216, %1226
  %1228 = fmul nsz float %1218, %1226
  %1229 = fmul nsz float %1220, %1226
  %1230 = fmul nsz float %980, %980
  %1231 = fmul nsz float %1230, %137
  %1232 = fadd nsz float %1231, %138
  %1233 = call nsz float @llvm.maxnum.f32(float %1232, float 0.000000e+00) #1
  %1234 = call nsz float @llvm.minnum.f32(float %1233, float 1.000000e+00) #1
  %1235 = fsub nsz float 1.000000e+00, %1234
  %1236 = fmul nsz float %130, %1235
  %1237 = fmul nsz float %131, %1235
  %1238 = fsub nsz float 1.000000e+00, %1236
  %1239 = fmul nsz float %128, %1236
  %1240 = fmul nsz float %1227, %1238
  %1241 = fadd nsz float %1239, %1240
  %1242 = fmul nsz float %1228, %1238
  %1243 = fadd nsz float %1239, %1242
  %1244 = fmul nsz float %1229, %1238
  %1245 = fadd nsz float %1239, %1244
  %1246 = fsub nsz float 1.000000e+00, %1237
  %1247 = fmul nsz float %129, %1237
  %1248 = fmul nsz float %454, %1246
  %1249 = fadd nsz float %1247, %1248
  %1250 = call nsz float @llvm.maxnum.f32(float %1241, float 0x3E6FFFFE60000000) #1
  %1251 = call nsz float @llvm.maxnum.f32(float %1243, float 0x3E6FFFFE60000000) #1
  %1252 = call nsz float @llvm.maxnum.f32(float %1245, float 0x3E6FFFFE60000000) #1
  %1253 = call nsz float @llvm.minnum.f32(float %1250, float 6.550400e+04) #1
  %1254 = call nsz float @llvm.minnum.f32(float %1251, float 6.550400e+04) #1
  %1255 = call nsz float @llvm.minnum.f32(float %1252, float 6.550400e+04) #1
  %1256 = fmul nsz float %1249, %139
  %1257 = fadd nsz float %1256, %140
  %1258 = call nsz float @llvm.maxnum.f32(float %1257, float 0.000000e+00) #1
  %1259 = call nsz float @llvm.minnum.f32(float %1258, float 1.000000e+00) #1
  %1260 = bitcast float %4 to i32
  %1261 = insertvalue <{ i32, i32, i32, i32, i32, float, float, float, float, float, float, float, float, float, float, float, float, float, float, float }> undef, i32 %1260, 4
  %1262 = insertvalue <{ i32, i32, i32, i32, i32, float, float, float, float, float, float, float, float, float, float, float, float, float, float, float }> %1261, float %1253, 5
  %1263 = insertvalue <{ i32, i32, i32, i32, i32, float, float, float, float, float, float, float, float, float, float, float, float, float, float, float }> %1262, float %1254, 6
  %1264 = insertvalue <{ i32, i32, i32, i32, i32, float, float, float, float, float, float, float, float, float, float, float, float, float, float, float }> %1263, float %1255, 7
  %1265 = insertvalue <{ i32, i32, i32, i32, i32, float, float, float, float, float, float, float, float, float, float, float, float, float, float, float }> %1264, float %1259, 8
  %1266 = insertvalue <{ i32, i32, i32, i32, i32, float, float, float, float, float, float, float, float, float, float, float, float, float, float, float }> %1265, float %20, 19
  ret <{ i32, i32, i32, i32, i32, float, float, float, float, float, float, float, float, float, float, float, float, float, float, float }> %1266
}

; Function Attrs: nounwind readnone
declare float @llvm.SI.load.const.v4i32(<4 x i32>, i32) #1

; Function Attrs: nounwind readnone speculatable
declare float @llvm.amdgcn.interp.p1(float, i32, i32, i32) #2

; Function Attrs: nounwind readnone speculatable
declare float @llvm.amdgcn.interp.p2(float, float, i32, i32, i32) #2

; Function Attrs: nounwind readnone speculatable
declare float @llvm.sqrt.f32(float) #2

; Function Attrs: nounwind readnone speculatable
declare float @llvm.floor.f32(float) #2

; Function Attrs: nounwind readnone speculatable
declare float @llvm.maxnum.f32(float, float) #2

; Function Attrs: nounwind readnone speculatable
declare float @llvm.minnum.f32(float, float) #2

; Function Attrs: nounwind readnone speculatable
declare float @llvm.pow.f32(float, float) #2

; Function Attrs: nounwind readnone
declare i32 @llvm.amdgcn.mbcnt.lo(i32, i32) #1

; Function Attrs: nounwind readnone
declare i32 @llvm.amdgcn.mbcnt.hi(i32, i32) #1

; Function Attrs: convergent nounwind readnone
declare i32 @llvm.amdgcn.ds.bpermute(i32, i32) #3

; Function Attrs: nounwind readnone speculatable
declare float @llvm.log2.f32(float) #2

; Function Attrs: nounwind readonly
declare <4 x float> @llvm.amdgcn.image.sample.l.v4f32.v4f32.v8i32(<4 x float>, <8 x i32>, <4 x i32>, i32, i1, i1, i1, i1, i1) #4

; Function Attrs: nounwind readonly
declare <4 x float> @llvm.amdgcn.image.sample.v4f32.v2f32.v8i32(<2 x float>, <8 x i32>, <4 x i32>, i32, i1, i1, i1, i1, i1) #4

; Function Attrs: nounwind readnone speculatable
declare float @llvm.exp2.f32(float) #2

; Function Attrs: nounwind readnone speculatable
declare float @llvm.fabs.f32(float) #2

; Function Attrs: nounwind readnone speculatable
declare float @llvm.amdgcn.cubetc(float, float, float) #2

; Function Attrs: nounwind readnone speculatable
declare float @llvm.amdgcn.cubesc(float, float, float) #2

; Function Attrs: nounwind readnone speculatable
declare float @llvm.amdgcn.cubema(float, float, float) #2

; Function Attrs: nounwind readnone speculatable
declare float @llvm.amdgcn.cubeid(float, float, float) #2

; Function Attrs: nounwind readonly
declare <4 x float> @llvm.amdgcn.image.sample.lz.v4f32.v2f32.v8i32(<2 x float>, <8 x i32>, <4 x i32>, i32, i1, i1, i1, i1, i1) #4

attributes #0 = { "InitialPSInputAddr"="0xb077" "no-signed-zeros-fp-math"="true" }
attributes #1 = { nounwind readnone }
attributes #2 = { nounwind readnone speculatable }
attributes #3 = { convergent nounwind readnone }
attributes #4 = { nounwind readonly }
attributes #5 = { nounwind }

!0 = !{float 2.500000e+00}
!1 = !{i32 0, i32 64}
!2 = !{}
